title,video link,director,agency,category,date,client
BREW WEBSITE VIDEO_1080,https://player.vimeo.com/video/268515184,Other Director,,Graphics,5/7/2018,
ARIEL VINA 30s,https://player.vimeo.com/video/267182817,Jun Carangan,Saatchi Singapore,Lifestyle,4/30/2018,Proctor and Gamble
ARIEL MARGIE 30s,https://player.vimeo.com/video/267174316,Marla Ancheta,Saatchi Singapore,Lifestyle,4/29/2018,Proctor and Gamble
ARIEL AILYN 30s,https://player.vimeo.com/video/267174253,Marla Ancheta,Saatchi Singapore,Lifestyle,4/29/2018,Proctor and Gamble
ARIEL FLORIDEL 30s,https://player.vimeo.com/video/267171607,Marla Ancheta,Saatchi Singapore,Lifestyle,4/29/2018,Proctor and Gamble
ONE MINDANAO CLASSROOM,https://player.vimeo.com/video/267170843,Jun Carangan,,Lifestyle,4/29/2018,One Mindanao
GSK SURVIVORS,https://player.vimeo.com/video/267169802,Jun Carangan,Campaigns and Grey,Lifestyle,4/29/2018,Glaxo Smith Klin
DOVE DIALOGUE 30s,https://player.vimeo.com/video/267169088,David Amanor Wilks,"Evidently, London",Beauty,4/29/2018,Unilever
Bamboo Bikes,https://player.vimeo.com/video/267167650,Other Director,,Lifestyle,4/29/2018,Bamboo Bike
ARIEL TERESA 30s,https://player.vimeo.com/video/266052957,Marla Ancheta,Saatchi Singapore,Lifestyle,4/23/2018,Proctor and Gamble
ARIEL CRISTINA 30s,https://player.vimeo.com/video/266052849,Marla Ancheta,Saatchi Singapore,Lifestyle,4/23/2018,Proctor and Gamble
PhilPlans LOLA,https://player.vimeo.com/video/266051047,Jun Carangan,Brand Ideas,Lifestyle,4/23/2018,Phil Plans
CLEAR SHAMPOO Galaxy,https://player.vimeo.com/video/266049227,Jun Carangan,Ogilvy and Mather,Beauty,4/23/2018,Unilever
BELO Master- Kili-kilig Omnibus,https://player.vimeo.com/video/266047998,Jun Carangan,Nuworks,Beauty,4/23/2018,Belo
ARIEL ROWENA 45s,https://player.vimeo.com/video/266047379,Jun Carangan,Saatchi Singapore,Lifestyle,4/23/2018,Proctor and Gamble
ARIEL KHAY 45s,https://player.vimeo.com/video/266047284,Jun Carangan,Saatchi Singapore,Lifestyle,4/23/2018,Proctor and Gamble
ARIEL HERMELYN 45s,https://player.vimeo.com/video/266045454,Jun Carangan,Saatchi Singapore,Lifestyle,4/23/2018,Proctor and Gamble
COCA COLA Ang Christmas Wish ni Jamaica,https://player.vimeo.com/video/266041120,Pao Pangan,Ogilvy and Mather,Food,4/22/2018,Coca Cola
COCA COLA Ang Christmas Wish ni Polo,https://player.vimeo.com/video/266039203,Pao Pangan,Ogilvy and Mather,Food,4/22/2018,Coca Cola
COCA COLA Cool,https://player.vimeo.com/video/264196978,Rye Dela Cruz,Starcom,Food,4/11/2018,Coca Cola
COCA COLA Sexy,https://player.vimeo.com/video/264196959,Rye Dela Cruz,Starcom,Food,4/11/2018,Coca Cola
RYE Directors Reel 2018,https://player.vimeo.com/video/264194053,Rye Dela Cruz,Starcom,Food,4/11/2018,Coca Cola
ALASKA CREMA RED KITCHEN EP09,https://player.vimeo.com/video/264191200,Rye Dela Cruz,Mullen Lowe,Food,4/11/2018,Alaska
ALVEO AVEIA 60s,https://player.vimeo.com/video/264190200,Rob Javier,Vitamin B,Lifestyle,4/11/2018,Alveo
PEAK FORM,https://player.vimeo.com/video/264189076,Rye Dela Cruz,,Lifestyle,4/11/2018,Peak Form
UNIQLO WORKOUT 30s,https://player.vimeo.com/video/264186171,Jun Carangan,Dentsu,Fashion,4/11/2018,Uniqlo
UNIQLO VOLLEYBALL 30s,https://player.vimeo.com/video/264185804,Jun Carangan,Dentsu,Fashion,4/11/2018,Uniqlo
SMART Aruga,https://player.vimeo.com/video/264184478,Zig Marasigan,Voyager Innovation,Corporate,4/10/2018,Smart Communication
SMIRNOFF YOLO,https://player.vimeo.com/video/264183762,Jason Tan,Campaigns and Grey,Food,4/10/2018,Emperador
DOWNY Hug it Out,https://player.vimeo.com/video/264180722,Brillante Mendoza,Campaigns and Grey,Lifestyle,4/10/2018,Proctor and Gamble
ARIEL Finally,https://player.vimeo.com/video/264180335,Matt Harris,Saatchi Singapore,Lifestyle,4/10/2018,Proctor and Gamble
ISUZU - F Series KWENTO NI KUYA TVC,https://player.vimeo.com/video/259633202,Rye Dela Cruz,,Corporate,3/12/2018,Isuzu Philippines
ELLIPS - CHILL,https://player.vimeo.com/video/259632066,Rye Dela Cruz,Catalytx Advertising Inc.,Beauty,3/12/2018,Kino Consumer Inc.
Banco De Oro HUMAN,https://player.vimeo.com/video/259631029,Apa Agbayani,Club Media Inc.,Lifestyle,3/12/2018,Banco De Oro
ISUZU C&amp;E Series MANGARAP KA TVC,https://player.vimeo.com/video/259630174,Rye Dela Cruz,,Corporate,3/12/2018,Isuzu Philippines
B'LUE Summer OVA-HD,https://player.vimeo.com/video/259284758,Rye Dela Cruz,Havas Media Ortega,Food,3/9/2018,Blue Summer Ova
ISUZU N Series BUNGA NG PAGSISIKAP,https://player.vimeo.com/video/259283414,Jun Carangan,,Lifestyle,3/9/2018,Isuzu Philippines
JOY Big Event 30s,https://player.vimeo.com/video/232585603,Jun Carangan,Publicis Singapore,Lifestyle,8/9/2017,Proctor and Gamble
ARIEL Richard Two 45s digital,https://player.vimeo.com/video/230882014,Narghiza Dotieva,Saatchi Singapore,Lifestyle,8/9/2017,Proctor and Gamble
ARIEL Ramil 45s digital,https://player.vimeo.com/video/230880851,Narghiza Dotieva,Saatchi Singapore,Lifestyle,8/9/2017,Proctor and Gamble
ALASKA CREMA RED KITCHEN 30S,https://player.vimeo.com/video/229961846,Other Director,,Food,8/17/2017,Alaska
TEMPRA - "Doctor" 30s_HD,https://player.vimeo.com/video/229068933,Jun Carangan,Brand Ideas,Lifestyle,8/9/2017,Taisho
LOLA REMEDIOS - "Gameshow" 30s,https://player.vimeo.com/video/227681997,Rye Dela Cruz,Catalytx Advertising,Lifestyle,8/9/2017,Kino Consumer Philippines
Downy "Towel" 30s,https://player.vimeo.com/video/227681790,Jun Carangan,Campaigns and Grey,Lifestyle,8/9/2017,Proctor and Gamble
ROCKWELL - MARVEL 60s,https://player.vimeo.com/video/225950944,Mike Alcazaren,Campaigns and Grey,Lifestyle,9/1/2017,Rockwell
LACTEZIN NEEDLE 15s,https://player.vimeo.com/video/222785564,Jun Carangan,Over the moon Communication,Beauty,6/5/2017,Unilab
LACTEZIN - LABA 15s,https://player.vimeo.com/video/222785374,Jun Carangan,Over the moon Communication,Beauty,6/5/2017,Unilab
LACTEZIN TSAA 15S,https://player.vimeo.com/video/222783870,Jun Carangan,Over the moon Communication,Beauty,6/5/2017,Unilab
LACTEZIN - BRUSH 15s,https://player.vimeo.com/video/222783542,Jun Carangan,Over the moon Communication,Beauty,6/5/2017,Unilab
TANDUAY - Insan 30s,https://player.vimeo.com/video/220415247,Mike Alcazaren,Garlic,Food,6/5/2017,Tanduay
Ariel - JOBELLE 45s,https://player.vimeo.com/video/220412600,Cholo Laurel,Saatchi Singapore,Lifestyle,6/5/2017,Proctor and Gamble
MINOLA - LIQUID GOLD (ALIN ANG PIPILIIN) 75s,https://player.vimeo.com/video/220278791,Jun Carangan,28 DC,Food,6/5/2017,Minola
ARIEL - ROSALYN 45s,https://player.vimeo.com/video/220265828,Cholo Laurel,Saatchi Singapore,Lifestyle,6/5/2017,Proctor and Gamble
ELLIPS COLOGNE "INTERVIEW" 30s,https://player.vimeo.com/video/213485165,Rye Dela Cruz,Catalytx Advertising,Beauty,4/17/2017,Ellips
Betadine Throat Spray "Yaz",https://player.vimeo.com/video/213484747,Jun Carangan,Grupo Agatep,Lifestyle,4/17/2017,Betadine
TOBLERONE "FLY FEARLESS" 60s,https://player.vimeo.com/video/213484601,Jason Tan,Ogilvy,Food,4/17/2017,Toblerone
MINOLA "SEXY HUSBAND" 30s,https://player.vimeo.com/video/213484499,Jun Carangan,28 DC,Food,4/17/2017,Minola
MINOLA "GUSTO" 30s,https://player.vimeo.com/video/213484322,Jun Carangan,28 DC,Food,4/17/2017,Minola
Rye Dela Cruz - Directors Reel - October 2016,https://player.vimeo.com/video/187952085,Rye Dela Cruz,,Graphics,4/17/2017,
Jun Carangan Sports Reel 2016,https://player.vimeo.com/video/187784019,Jun Carangan,,Graphics,4/17/2017,
Jun Carangan Beauty Reel,https://player.vimeo.com/video/109103858,Jun Carangan,,Graphics,4/17/2017,
